﻿biomes.png=2850874501
dtm.raw=3957162657
dtm_processed.raw=1136483326
main.ttw=3871697138
map_info.xml=3734723403
prefabs.xml=2881632218
radiation.png=1080288443
spawnpoints.xml=2637314049
splat3.png=2046075438
splat3_processed.png=1988032346
splat4.png=2018965102
splat4_processed.png=427529094
