﻿biomes.png=485483011
dtm.raw=780062864
dtm_processed.raw=1890667739
main.ttw=3080332721
map_info.xml=1953372417
prefabs.xml=1248561066
radiation.png=2710622404
spawnpoints.xml=3492346851
splat3.png=3367915963
splat3_processed.png=2639301931
splat4.png=3318071571
splat4_processed.png=2122228137
